…
## Songs

``` r
song_data %>% arrange(desc(danceability)) %>%
  select(song, performer, danceability)
```

    ## # A tibble: 29,506 x 3
    ##    song                             performer                       danceability
    ##    <chr>                            <chr>                                  <dbl>
    ##  1 Funky Cold Medina                Tone-Loc                               0.988
    ##  2 Go Girl                          Pitbull Featuring Trina & Youn~        0.986
    ##  3 Cash Me Outside (#CashMeOutside) DJ Suede The Remix God                 0.981
    ##  4 Ice Ice Baby                     Glee Cast                              0.98 
    ##  5 State of Shock                   The Jacksons                           0.98 
    ##  6 Ice Ice Baby                     Vanilla Ice                            0.978
    ##  7 Uno                              Ambjaay                                0.978
    ##  8 Bad Bad Bad                      Young Thug Featuring Lil Baby          0.974
    ##  9 Bad Bad Bad                      Young Thug Featuring Lil Baby          0.974
    ## 10 Betcha She Don't Love You        Evelyn King                            0.974
    ## # ... with 29,496 more rows
…
``` r
song_data %>% filter(song_year == 2010) %>%
  arrange(danceability) %>%
  select(song, performer, danceability)
```

    ## # A tibble: 474 x 3
    ##    song                                             performer       danceability
    ##    <chr>                                            <chr>                  <dbl>
    ##  1 New Morning                                      Alpha Rev              0.191
    ##  2 Black Rain                                       Soundgarden            0.2  
    ##  3 Don't Cry For Me Argentina (Lea Michele Version) Glee Cast              0.21 
    ##  4 I Dreamed A Dream                                Glee Cast Feat~        0.236
    ##  5 Beautiful                                        Glee Cast              0.253
    ##  6 Hallelujah (Vancouver Winter 2010 Version)       k.d. lang              0.256
    ##  7 A House Is Not A Home                            Glee Cast              0.266
    ##  8 One Less Bell To Answer / A House Is Not A Home  Glee Cast Feat~        0.266
    ##  9 One Of Us                                        Glee Cast              0.278
    ## 10 What I Did For Love                              Glee Cast              0.281
    ## # ... with 464 more rows
